<svg enable-background="new" height="141.75" width="214.77" xmlns="http://www.w3.org/2000/svg" xmlns:xlink="http://www.w3.org/1999/xlink">
	<marker id="a" orient="auto" overflow="visible" refX="0" refY="0">
		<path d="m-2.5-1c0 2.76-2.24 5-5 5s-5-2.24-5-5 2.24-5 5-5 5 2.24 5 5z" fill="#f00" fill-rule="evenodd" stroke="#f00" stroke-width="1pt" transform="matrix(.2 0 0 .2 1.48 .2)"/>
	</marker>
	<linearGradient id="b" gradientUnits="userSpaceOnUse" x1=".002" x2=".002" y1="33.346" y2="12.754">
		<stop offset="0" stop-color="#fff"/>
		<stop offset=".0051" stop-color="#fefcfc"/>
		<stop offset=".1497" stop-color="#e6a4a4"/>
		<stop offset=".277" stop-color="#d35e5e"/>
		<stop offset=".3823" stop-color="#c62b2b"/>
		<stop offset=".4615" stop-color="#bd0c0c"/>
		<stop offset=".5056" stop-color="#ba0000"/>
		<stop offset=".7077" stop-color="#d86e6e"/>
		<stop offset=".9099" stop-color="#f4d6d6"/>
		<stop offset="1" stop-color="#fff"/>
	</linearGradient>
	<radialGradient id="c" cx="9.59" cy="8.25" gradientTransform="matrix(2.71 0 0 2.66 -16.42 -15.83)" gradientUnits="userSpaceOnUse" r="6.75">
		<stop offset="0" stop-color="#fede58"/>
		<stop offset=".6854" stop-color="#ba0000"/>
	</radialGradient>
	<linearGradient id="d" gradientUnits="userSpaceOnUse" x1=".37" x2="23.05" y1="23.05" y2=".378">
		<stop offset="0" stop-color="#fff"/>
		<stop offset="1" stop-color="#89a4b6"/>
	</linearGradient>
	<g transform="translate(-513.28 -334.76)">
		<g fill="none" stroke="#f00">
			<g stroke-linecap="round" stroke-width="1.5">
				<path d="m514.03 407.41 194.42.06"/>
				<path d="m619.27 407.68-.06 62.53" stroke-dasharray="4.5 4.5"/>
				<path d="m619.27 375.78-.06 31.09" marker-start="url(#a)"/>
			</g>
			<path d="m670.97 346.78s2.48 28.33-21.5 18.55c-6.89-2.81-20.88 10.45-30.19 10.45-7.44-2.83-10.64-6.95-17.96-10.07-5.61-2.39-17.24 3.92-17.89-7.22-.21-3.66 1.26-12.56 1.26-12.56"/>
		</g>
		<g>
			<g stroke="#000" stroke-width="1.11" transform="matrix(0 .68 -.68 0 627.13 399.58)">
				<path d="m.38.38h22.68v22.68h-22.68z" fill="url(#d)"/>
				<path d="m.38.38 22.67 22.67" fill="none"/>
			</g>
			<g stroke-width="1.37" transform="matrix(-.73 0 0 -.73 558.5 424.27)">
				<path d="m.38.38h56.69v12.76h-56.69z" fill="#302b33" stroke-width="1.37"/>
				<path d="m.38 32.97h56.69v12.76h-56.69z" fill="#302b33" stroke-width="1.37"/>
				<g stroke="#000" stroke-width="1.03">
					<path d="m.38 13.13h56.69v19.84h-56.69z" fill="url(#b)"/>
					<path d="m57.07 3.21h4.25v39.69h-4.25z"/>
					<path d="m.38.38h56.69v45.35h-56.69z" fill="none"/>
				</g>
			</g>
			<g stroke="#000" stroke-width="1.01" transform="matrix(0 -.74 .74 0 662.37 346.91)">
				<path d="m6.04 1.79c-.99 0-1.94.15-2.84.42v19.01c.9.27 1.85.42 2.84.42 5.48 0 9.92-4.44 9.92-9.92s-4.44-9.92-9.92-9.92z" fill="url(#c)"/>
				<path d="m.38.38h2.84v22.68h-2.84z"/>
			</g>
		</g>
		<g>
			<text font-family="cmr10" x="518.79" y="380.57"><tspan font-size="12" x="518.79" y="380.57">Laser</tspan></text>
			<g enable-background="new" stroke="#000" stroke-width=".75" transform="matrix(0 -.75 .75 0 576.86 347.02)">
				<path d="m6.04 1.79c-.99 0-1.94.15-2.84.42v19.01c.9.27 1.85.42 2.84.42 5.48 0 9.92-4.44 9.92-9.92s-4.44-9.92-9.92-9.92z" fill="url(#c)"/>
				<path d="m.38.38h2.84v22.68h-2.84z"/>
			</g>
			<text font-family="cmr10" x="632.83" y="397.08"><tspan font-size="12" x="632.83" y="397.08">BS</tspan></text>
			<text x="629.71" y="473.68"><tspan x="629.71" y="473.68"/></text>
			<g font-family="cmr10">
				<text x="627.51" y="473.64"><tspan font-size="12" x="627.51" y="473.64">squeezed vacuum</tspan></text>
				<text x="681.53" y="345.42"><tspan font-size="12" x="681.53" y="345.42">qnoised</tspan></text>
				<text x="539.24" y="345.42"><tspan font-size="12" x="539.24" y="345.42">qshot</tspan></text>
			</g>
		</g>
	</g>
</svg>
