<svg height="158.67" width="509.2" xmlns="http://www.w3.org/2000/svg" xmlns:xlink="http://www.w3.org/1999/xlink">
	<marker id="a" orient="auto" overflow="visible" refX="0" refY="0">
		<path d="m8.72 4.03-10.93-4.01 10.93-4.02c-1.75 2.37-1.74 5.62 0 8.03z" fill="#f00" fill-rule="evenodd" stroke="#f00" stroke-linejoin="round" stroke-width=".63" transform="scale(-.6)"/>
	</marker>
	<marker id="b" orient="auto" overflow="visible" refX="0" refY="0">
		<path d="m8.72 4.03-10.93-4.01 10.93-4.02c-1.75 2.37-1.74 5.62 0 8.03z" fill="#f00" fill-rule="evenodd" stroke="#f00" stroke-linejoin="round" stroke-width=".63" transform="scale(.6)"/>
	</marker>
	<marker id="c" orient="auto" overflow="visible" refX="0" refY="0">
		<path d="m8.72 4.03-10.93-4.01 10.93-4.02c-1.75 2.37-1.74 5.62 0 8.03z" fill="#0000c0" fill-rule="evenodd" stroke="#0000c0" stroke-linejoin="round" stroke-width=".63" transform="scale(-.6)"/>
	</marker>
	<marker id="d" orient="auto" overflow="visible" refX="0" refY="0">
		<path d="m8.72 4.03-10.93-4.01 10.93-4.02c-1.75 2.37-1.74 5.62 0 8.03z" fill="#00009c" fill-rule="evenodd" stroke="#00009c" stroke-linejoin="round" stroke-width=".63" transform="scale(.6)"/>
	</marker>
	<linearGradient id="e" gradientUnits="userSpaceOnUse" x1=".002" x2=".002" y1="33.346" y2="12.754">
		<stop offset="0" stop-color="#fff"/>
		<stop offset=".0051" stop-color="#fefcfc"/>
		<stop offset=".1497" stop-color="#e6a4a4"/>
		<stop offset=".277" stop-color="#d35e5e"/>
		<stop offset=".3823" stop-color="#c62b2b"/>
		<stop offset=".4615" stop-color="#bd0c0c"/>
		<stop offset=".5056" stop-color="#ba0000"/>
		<stop offset=".7077" stop-color="#d86e6e"/>
		<stop offset=".9099" stop-color="#f4d6d6"/>
		<stop offset="1" stop-color="#fff"/>
	</linearGradient>
	<linearGradient id="f" gradientUnits="userSpaceOnUse" x1=".002" x2=".002" y1="29.098" y2=".002">
		<stop offset=".0056" stop-color="#89a4b6"/>
		<stop offset=".5" stop-color="#fff"/>
		<stop offset="1" stop-color="#89a4b6"/>
	</linearGradient>
	<g transform="translate(-109.78 -269.99)">
		<path d="m294.14 328.58h42.81" fill="none" marker-start="url(#b)" stroke="#f00" stroke-linecap="round" stroke-width="2"/>
		<path d="m151.25 320.09h182.7" fill="none" marker-end="url(#a)" stroke="#f00" stroke-linecap="round" stroke-width="1.74"/>
		<g enable-background="new" transform="matrix(-1 0 0 -1 171.46 343.15)">
			<path d="m.38.38h56.69v12.76h-56.69z" fill="#302b33"/>
			<path d="m.38 32.97h56.69v12.76h-56.69z" fill="#302b33"/>
			<g stroke="#000" stroke-width=".75">
				<path d="m.38 13.13h56.69v19.84h-56.69z" fill="url(#e)"/>
				<path d="m57.07 3.21h4.25v39.69h-4.25z"/>
				<path d="m.38.38h56.69v45.35h-56.69z" fill="none"/>
			</g>
		</g>
		<g enable-background="new" stroke="#000" stroke-width=".75" transform="matrix(-1.49 0 0 1.49 353.81 299.21)">
			<path d="m.38.38h9.92v28.35h-9.92z" fill="url(#f)"/>
			<path d="m7.46.38h2.84v28.35h-2.84z"/>
		</g>
		<text font-family="Arial" font-size="16" x="118.65" y="283.03"><tspan font-family="Arial" font-size="16" x="118.65" y="283.03">Laser</tspan></text>
		<text font-family="Arial" font-size="16" x="325.5" y="283.03"><tspan x="325.5" y="283.03">M_in</tspan></text>
		<path d="m546.45 346.43 1.63 17.34c.88 9.28 5.91 24.95 6.2 31.16.45 9.59-13.65 9.83-21.51 12.44-2.47.82-5.16.68-7.75.9-8.93.78-26.84 1.56-26.84 1.56" style="fill:#fff;stroke:#0000c0;stroke-width:2;stroke-linecap:round;stroke-miterlimit:5;stroke-dasharray:8 8;marker-end:url(#c)"/>
		<path d="m328.14 443.3c0 2.29-1.85 4.14-4.14 4.14s-4.14-1.85-4.14-4.14 1.85-4.15 4.14-4.15c2.26 0 4.11 1.82 4.14 4.08l-4.14.07z" fill="#0000c7" transform="translate(22.66 -100.37)"/>
		<text font-family="Arial" font-size="18" x="351.62" y="425.08"><tspan x="351.62" y="425.08">position detectors</tspan></text>
		<path d="m193.05 297.34h92.19v49.22h-92.19z" fill="none" opacity=".9" stroke="#000" stroke-dasharray="6 6" stroke-width="2"/>
		<text font-family="Arial" font-size="16" x="213.21" y="281.63"><tspan x="213.21" y="281.63">Space</tspan></text>
		<g enable-background="new" stroke="#000" stroke-width=".75" transform="matrix(1.49 0 0 1.49 537.29 299.21)">
			<path d="m.38.38h9.92v28.35h-9.92z" fill="url(#f)"/>
			<path d="m7.46.38h2.84v28.35h-2.84z"/>
		</g>
		<text font-family="Arial" font-size="16" x="524.83" y="283.97"><tspan x="524.83" y="283.97">M_end</tspan></text>
		<g fill="none" stroke-width="2">
			<path d="m398.83 297.34h92.19v49.22h-92.19z" opacity=".9" stroke="#000" stroke-dasharray="6 6"/>
			<path d="m366.51 328.15h169.73" marker-start="url(#b)" stroke="#f00" stroke-linecap="round"/>
			<path d="m524.63 317.62h-169.72" marker-start="url(#b)" stroke="#f00" stroke-linecap="round"/>
		</g>
		<path d="m328.14 443.3c0 2.29-1.85 4.14-4.14 4.14s-4.14-1.85-4.14-4.14 1.85-4.15 4.14-4.15c2.26 0 4.11 1.82 4.14 4.08l-4.14.07z" fill="#0000c7" transform="translate(220.9 -101.15)"/>
		<path d="m346.84 345.66 11.99 12.17c9.47 9.6 1.49 20.82-8.82 22.87-4.85.96-7.37 9.68-4.94 13.99 2.44 4.3 9.61 2.47 14.53 2.97 7.24.74 21.84 0 21.84 0" style="fill:#fff;stroke:#0000c0;stroke-width:2;stroke-linecap:round;stroke-miterlimit:5;stroke-dasharray:8 8;marker-end:url(#c)"/>
		<path d="m558.17 320.89h42.82" fill="none" marker-start="url(#d)" stroke="#00009c" stroke-linecap="round" stroke-width="2"/>
		<text font-family="Arial" font-size="16" x="578.71" y="314.63"><tspan x="578.71" y="314.63">Force</tspan></text>
	</g>
</svg>
